[gd_scene load_steps=5 format=2]

[ext_resource path="res://Assets/DungeonTileset/DungeonTileset_box.png" type="Texture" id=1]
[ext_resource path="res://Scripts/Box.gd" type="Script" id=2]

[sub_resource type="RectangleShape2D" id=1]
extents = Vector2( 8, 7 )

[sub_resource type="RectangleShape2D" id=2]
extents = Vector2( 8, 9 )

[node name="Box" type="StaticBody2D"]
collision_mask = 0
script = ExtResource( 2 )

[node name="Sprite" type="Sprite" parent="."]
texture = ExtResource( 1 )
centered = false
offset = Vector2( 0, -32 )

[node name="Collider" type="CollisionShape2D" parent="."]
position = Vector2( 8, -7 )
shape = SubResource( 1 )

[node name="Area2D" type="Area2D" parent="."]
position = Vector2( 8, -9 )
collision_mask = 0

[node name="CollisionShape2D" type="CollisionShape2D" parent="Area2D"]
shape = SubResource( 2 )
[connection signal="area_entered" from="Area2D" to="." method="_on_Area2D_area_entered"]
