[gd_scene load_steps=4 format=2]

[ext_resource path="res://Assets/Others/Shield.png" type="Texture" id=1]
[ext_resource path="res://Scripts/Pickup_defense.gd" type="Script" id=2]

[sub_resource type="RectangleShape2D" id=1]
extents = Vector2( 4, 4 )

[node name="Pickup_defense" type="Area2D"]
collision_layer = 0
collision_mask = 2
script = ExtResource( 2 )

[node name="Sprite" type="Sprite" parent="."]
scale = Vector2( 0.5, 0.5 )
texture = ExtResource( 1 )

[node name="CollisionShape2D" type="CollisionShape2D" parent="."]
shape = SubResource( 1 )
[connection signal="body_entered" from="." to="." method="_on_Pickup_attack_body_entered"]
